{
    "txtYouDidIt": "Dobrá práce!",
    "txtNextUp": "Další cvik:",
    "txtLetsGoFirstUp": "Pojďme na to! První cvik: %s",
    "txtSecondsLeft5plus": "Zbývá %d vteřin",
    "txtBreak": "Pauza!",
    "txtTapForControls": "Ťukněte pro ovládání",
    "txtImageMissing": "Chybí fotka",
    "txtWorkoutTitle": "Název tréninku",
    "txtBeYourOwnCoach": "Buď vlastním trenérem!",
    "txtWorkoutToMakeYouFeelBest": "Navrhni si takový trénink, po kterém se budeš cítit nejlépe",
    "txtCategoryFullBody": "Celé tělo",
    "txtCategoryLegs": "Nohy",
    "txtYoureGlowing": "Dobrá práce!",
    "txtSubmitNewExercise": "Přispěj nový cvik",
    "txtContributeExerciseExplainer": "Feeel spoléhá na dobrovolnické přispívání cviků a příslušných fotografií. Jakékoli fotografie, které přispějete, budou nejprve soukromě zpracovány, poté Vám zaslány ke schválení a teprve s Vaším svolením vydány v aplikaci. Předem díky za přispívání!",
    "txtExerciseName": "Název cviku",
    "txtHowToPerformExercise": "Jak provést cvik (nepovinné)",
    "txtEmailCouldNotBeSent": "E-mail se nepovedlo odeslat",
    "txtSubmitExerciseMessageTitle": "Návrh cviku: %s",
    "txtSubmitExerciseMessageContents": "Zdravím,\n\nPosílám návrh na cvičení. Tímto prohlašuji, že veškerý obsah, který odesílám, je čistě moje vlastní práce. Odesláním této zprávy neodvolatelně souhlasím s tím, aby podaný název a popis byly vydány pod licencí CC BY-SA 4.0 a AGPLv3 s vyjímkou pro obchody s aplikacemi (tzv. \"app store exception\"). Také dávám svolení zpracovat připojený obrázek/obrázky do polygonové verze (tzv. \"low-poly\" styl). Po jejich zpracování vyhodnotím, zda jsem ochoten je vydat pod licencí CC BY-SA 4.0.\n\nNázev cvičení: %1s\nKroky cvičení:\n%2s",
    "txtSettings": "Nastavení",
    "txtWorkoutTitleEmpty": "Prosím poskytněte název tréninku",
    "txtWorkoutExercisesEmpty": "Prosím přidejte alespoň 1 cvik",
    "txtDuration": "Délka",
    "txtExerciseDuration": "Délka cviku",
    "txtBreakDuration": "Délka přestávky",
    "txtCustom": "Vlastní",
    "txtNotANumber": "Není číslo",
    "txtNegativeNumber": "Není kladné",
    "txtNotificationInfoTitle": "Denní upozornění",
    "txtNotificationInfoDesc": "Denní připomenutí jít cvičit",
    "txtNotificationTitle": "Čas obléknout cvičební úbor!",
    "txtNotificationDesc": "Stačí jen pár minut, abyste se cítil/a svěží a fit",
    "txtRemindMe": "Denní upomenutí",
    "txtNeedCameraPermission": "Nelze fotografovat bez povolení fotoaparátu",
    "txtNotificationTime": "Čas upozornění",
    "txtAddExerciseFirst": "Nejprve musíte přidat cvičení",
    "btnStartWorkout": "Spustit trénink",
    "btnResumeWorkout": "Pokračovat v tréninku",
    "btnPreviousExercise": "Předchozí cvik",
    "btnNextExercise": "Další cvik",
    "btnAddExercise": "Přidat cviky",
    "btnEdit": "Upravit",
    "btnDelete": "Odstranit",
    "btnDuplicate": "Duplikovat",
    "btnDone": "Hotovo",
    "btnMoreInfo": "Více info",
    "btnCreateCustomWorkout": "Vytvořit vlastní trénink",
    "btnAddCustomExerice": "Navrhnout vlastní cvik",
    "btnSubmitViaEmail": "Odeslat e-mailem",
    "btnAddPhotoFromGallery": "Přidat fotku z galerie",
    "btnTakeAPhoto": "Vyfotit cvik",
    "btnAddALinkToPhotos": "Přidat odkaz k fotce/fotkám",
    "btnDisableTTS": "Používat zvuky namísto mluveného slova",
    "btnAdjustTiming": "Upravit časování",
    "txtFeeelDescription": "Open-source fitness aplikace, která respektuje vaše soukromí",
    "txtAboutFeeel": "O Feeel",
    "btnDoneEditingTiming": "Časování upraveno",
    "btnOK": "OK",
    "btnDiscard": "Zahodit",
    "btnCancel": "Zrušit",
    "btnEnableTTS": "Použít hlas",
    "txtDiscardChanges": "Zahodit změny?",
    "txtCustomDuration": "Vlastní délka (s.)",
    "txtThemeDark": "Tmavý",
    "txtThemeLight": "Světlý",
    "txtThemeSystem": "Dle systému",
    "txtTheme": "Vzhled",
    "txtCouldNotOpenURL": "Nelze otevřít URL.",
    "txtDonate": "Darovat",
    "txtSourceCode": "Zdrojový kód",
    "txtParticipate": "Účastněte se",
    "txtBatteryOptimization": "Na některých zařízeních může být nutné vypnout optimalizaci baterie pro Feeel, aby tato funkce spolehlivě fungovala.",
    "txtOther": "Jiné",
    "txtCardio": "Kardio",
    "txtStretchingAndYoga": "Protahování a jóga",
    "txtStrength": "Silové cvičení",
    "txtDurationLong": "%1d min., %2d s.",
    "txtLanguage": "Jazyk",
    "txtNumberInputEmpty": "Nesmí být prázdné",
    "txtNumberInputNonnumeric": "Musí být číslo",
    "txtDragToReorder": "Táhněte touto rukojetí pro změnu pořadí cviků.",
    "btnBackToWorkoutList": "Zpět na seznam tréninků",
    "txtNoExercises": "V tomto tréninku nejsou žádné cviky. :(",
    "btnDeleteThisWorkout": "Odstranit tento trénink"
}
