{
    "txtYouDidIt": "Goed gedaan!",
    "txtNextUp": "Hierna:",
    "txtLetsGoFirstUp": "Tijd om aan de slag te gaan! Allereerst: %s",
    "txtSecondsLeft5plus": "Nog %d seconden te gaan",
    "txtBreak": "Tijd voor een pauze!",
    "txtTapForControls": "Druk om bediening te tonen",
    "txtImageMissing": "Afbeelding ontbreekt",
    "txtWorkoutTitle": "Naam van workout",
    "txtBeYourOwnCoach": "Coach jezelf!",
    "txtWorkoutToMakeYouFeelBest": "Ontwerp dé workout die voor jou prettig voelt",
    "txtCategoryFullBody": "Hele lichaam",
    "txtCategoryLegs": "Benen",
    "txtYoureGlowing": "Je straalt!",
    "txtSubmitNewExercise": "Deel je oefeningen met ons",
    "txtContributeExerciseExplainer": "Feeel is afhankelijk van vrijwilligers zoals jij voor het verkrijgen van oefeningen met bijbehorende foto's. Je foto's worden anoniem aangepast voor gebruik in de app, dan aan je opgestuurd voor goedkeuring en pas dáárna toegevoegd aan de app. Alle foto's en tekst dienen door jou te zijn gemaakt. Alvast bedankt!",
    "txtExerciseName": "Naam van oefening",
    "txtHowToPerformExercise": "Hoe voer je de oefening te worden uit? (optioneel)",
    "txtEmailCouldNotBeSent": "De e-mail kan niet worden verstuurd",
    "txtSubmitExerciseMessageTitle": "Oefeningbijdrage:%s",
    "txtSubmitExerciseMessageContents": "Hallo,\n\nHierbij dien ik een voorstel in voor een oefening. Ik begrijp dat ik alleen mijn *eigen* werk mag indienen. Als ik dit bericht verstuur, ga ik onherroepelijk akkoord met het feit dat de naam en omschrijving van de oefening worden vrijgegeven onder de CC BY-SA 4.0- en GPLv3-licentie, met uitzondering van de appwinkel. Ik geef tevens toestemming om de bijgevoegde afbeelding(en) anoniem te verwerken. Daarna worden ze door mij geëvalueerd om ze al dan niet vrij te geven onder de CC BY-SA 4.0-licentie.\n\nNaam van de oefening: %1s\nUitleg:\n%2s",
    "txtSettings": "Instellingen",
    "txtWorkoutTitleEmpty": "Geef de workout een naam",
    "txtWorkoutExercisesEmpty": "Voeg minimaal 1 oefening toe",
    "txtDuration": "Duur",
    "txtExerciseDuration": "Duur van oefening",
    "txtBreakDuration": "Duur van pauze",
    "txtCustom": "Aangepast",
    "txtNotANumber": "Niet-numeriek",
    "txtNegativeNumber": "Niet-positief",
    "txtNotificationInfoTitle": "Dagelijkse herinnering",
    "txtNotificationInfoDesc": "Wordt dagelijks herinnerd om een workout te doen",
    "txtNotificationTitle": "Tijd om je sportkleding aan te trekken!",
    "txtNotificationDesc": "Het kost slechts een paar minuten van je tijd om je weer fris en fruitig te voelen",
    "txtRemindMe": "Dagelijkse herinnering",
    "txtNeedCameraPermission": "Zonder camerarechten kunnen er geen foto's worden gemaakt",
    "txtNotificationTime": "Tijdstip",
    "txtAddExerciseFirst": "Voeg eerst een oefening toe",
    "btnStartWorkout": "Workout starten",
    "btnResumeWorkout": "Workout hervatten",
    "btnPreviousExercise": "Vorige oefening",
    "btnNextExercise": "Volgende oefening",
    "btnAddExercise": "Oefeningen toevoegen",
    "btnEdit": "Aanpassen",
    "btnDelete": "Verwijderen",
    "btnDuplicate": "Een afschrift maken",
    "btnDone": "Klaar",
    "btnMoreInfo": "Meer informatie",
    "btnCreateCustomWorkout": "Eigen workout samenstellen",
    "btnAddCustomExerice": "Deel je eigen workout met ons",
    "btnSubmitViaEmail": "Versturen via e-mail",
    "btnAddPhotoFromGallery": "Foto toevoegen uit galerij",
    "btnTakeAPhoto": "Foto maken",
    "btnAddALinkToPhotos": "Voeg een link toe naar je foto('s)",
    "btnDisableTTS": "Geluiden afspelen in plaats van oefening voor te lezen",
    "btnAdjustTiming": "Timing aanpassen",
    "txtFeeelDescription": "Een open source workout-app die je privacy respecteert",
    "txtAboutFeeel": "Over Feeel",
    "btnOK": "Oké",
    "btnCancel": "Annuleren",
    "txtCustomDuration": "Aangepaste duur (in sec.)",
    "btnDiscard": "Verwerpen",
    "txtDiscardChanges": "Wijzigingen verwerpen?",
    "btnDoneEditingTiming": "Aanpassen afronden",
    "txtThemeDark": "Donker",
    "txtThemeLight": "Licht",
    "txtThemeSystem": "Systeemthema",
    "txtTheme": "Thema",
    "txtCouldNotOpenURL": "De url kan niet worden geopend.",
    "txtParticipate": "Bijdragen",
    "txtDonate": "Doneren",
    "txtSourceCode": "Broncode",
    "txtBatteryOptimization": "Op sommige apparaten is het verstandig om accu-optimalisatie uit te schakelen zodat Feeel betrouwbaar kan werken.",
    "btnEnableTTS": "Stembediening gebruiken",
    "txtOther": "Andere",
    "txtCardio": "Cardio",
    "txtStretchingAndYoga": "Rekken en yoga",
    "txtStrength": "Kracht",
    "txtDurationLong": "%1d min %2d s",
    "txtDragToReorder": "Versleep dit handvat om oefeningen anders in te delen.",
    "txtNumberInputNonnumeric": "Moet numeriek zijn",
    "txtNumberInputEmpty": "Kan niet leeg zijn",
    "txtLanguage": "Taal",
    "btnDeleteThisWorkout": "Work-out verwijderen",
    "btnBackToWorkoutList": "Terug naar overzicht",
    "txtNoExercises": "Deze work-out bevat geen oefeningen. :("
}
