{
    "txtYouDidIt": "Você conseguiu!",
    "txtNextUp": "Próximo:",
    "txtLetsGoFirstUp": "Vamos lá! Começando com: %s",
    "txtSecondsLeft5plus": "%d segundos restantes",
    "txtBreak": "Pausa!",
    "txtTapForControls": "Toque para controles",
    "txtImageMissing": "Imagem faltando",
    "txtWorkoutTitle": "Título do treino",
    "txtBeYourOwnCoach": "Seja seu próprio treinador!",
    "txtCategoryFullBody": "Todo o corpo",
    "txtCategoryLegs": "Pernas",
    "txtYoureGlowing": "Estás brilhando!",
    "txtSubmitNewExercise": "Contribuir",
    "txtExerciseName": "Nome do exercício",
    "txtHowToPerformExercise": "Como realizar o exercício (opcional)",
    "txtEmailCouldNotBeSent": "O e-mail não pôde ser enviado",
    "txtSubmitExerciseMessageTitle": "Proposta de exercício: %s",
    "txtSettings": "Configurações",
    "txtWorkoutTitleEmpty": "Por favor especifique o nome do treino",
    "txtWorkoutExercisesEmpty": "Por favor adicione pelo menos um exercício",
    "txtContributeExerciseExplainer": "Feeel conta com voluntários como você para enviar exercícios e fotos de exercícios. As fotos serão primeiro processadas em versões trianguladas, depois enviadas a você para aprovação, e só depois liberadas no aplicativo. Todas as fotos e textos enviados devem ser exclusivamente o seu trabalho. Obrigado por contribuir!",
    "txtWorkoutToMakeYouFeelBest": "Elabore o treino que te faça sentir-se o melhor",
    "txtSubmitExerciseMessageContents": "Olá,\n\nEstou enviando uma proposta de um exercício. Declaro que tanto as imagens anexas quanto a descrição são completamente minha própria obra. Ao enviar esta mensagem, concordo irrevogavelmente em ter o nome e a descrição submetidos liberados sob uma licença CC BY-SA 4.0 e uma licença AGPLv3 com uma licença de exceção de loja de aplicativos. Eu também dou permissão para processar a(s) imagem(s) anexada(s) em variantes low-poly. Após serem processadas, avaliarei se estou disposto a licenciá-las sob a licença CC BY-SA 4.0.\n\nNome do exercício: %1s\nPassos para o exercício:\n%2s",
    "txtDuration": "Duração"
}
